{
	"components" : [
		{
			"id" : "article",
			"name" : "Article",
			"variations" : [
				{
					"name" : "Exemple",
					"template" : "article"
				},
				{
					"name" : "Exemple 2",
					"template" : "article2"
				}
			],
			"description_editorial" : "ma description editoriale",
			"description_advanced" : "ma description avancée"
		},
		{
			"id" : "teaser",
			"name" : "Teaser",
			"variations" : [
				{
					"name" : "Exemple",
					"template" : "teaser"
				}
			],
			"description_editorial" : "ma description editoriale",
			"description_advanced" : "ma description avancée"
		}
		],
	"integrations" : [
		{
			"id" : "tabs",
			"name" : "Tabs",
			"variations" : [
				{
					"name" : "Exemple",
					"template" : "tabs"
				}
			],
			"description_editorial" : "ma description editoriale",
			"description_advanced" : "ma description avancée"
		},
		{
			"id" : "overflow",
			"name" : "Overflow",
			"variations" : [
				{
					"name" : "Exemple",
					"template" : "overflow"
				}
			],
			"description_editorial" : "ma description editoriale",
			"description_advanced" : "ma description avancée"
		}
	]
}
